[{
    "type": "connector",
    "token": "agarxhqb98rpajloaxn34ga8xrunpagkjwlaw3ruxnpaagl29w4rxn"
},
{
    "type": "logic",
    "token": "agarxhqb98rpajloaxn34ga8xrunpagkjwlaw3ruxnpaagl29w4rxn"
},
{
    "type": "db",
    "token": "agarxhqb98rpajloaxn34ga8xrunpagkjwlaw3ruxnpaagl29w4rxn"
}
]